<svg xmlns="http://www.w3.org/2000/svg" width="31" height="31" viewBox="0 0 31 31">
  <title>icon-search-o</title>
  <g id="Layer_2" data-name="Layer 2">
    <g id="Guides">
      <g>
        <circle cx="15.5" cy="15.5" r="15" fill="#fff" stroke="#ccc" stroke-miterlimit="10"/>
        <g>
          <circle cx="13.8" cy="13.8" r="4.1" fill="none" stroke="#e50914" stroke-miterlimit="10" stroke-width="2"/>
          <line x1="21.3" y1="21.3" x2="16.8" y2="16.8" fill="none" stroke="#e50914" stroke-miterlimit="10" stroke-width="2"/>
        </g>
      </g>
    </g>
  </g>
</svg>
