<svg xmlns="http://www.w3.org/2000/svg" width="43.06" height="27.86" viewBox="0 0 43.06 27.86">
  <title>icon-giftcard</title>
  <g id="Layer_2" data-name="Layer 2">
    <g id="Layer_1-2" data-name="Layer 1">
      <g>
        <rect x="0.5" y="0.5" width="42.06" height="26.86" rx="2" ry="2" fill="none" stroke="#fff" stroke-miterlimit="10"/>
        <line x1="0.5" y1="9.72" x2="42.56" y2="9.72" fill="none" stroke="#fff" stroke-miterlimit="10"/>
        <line x1="10.63" y1="0.5" x2="10.63" y2="27.36" fill="none" stroke="#fff" stroke-miterlimit="10"/>
        <g>
          <path d="M6.77,5.86C9,3.62,10.63,9.72,10.63,9.72S4.53,8.1,6.77,5.86Z" fill="none" stroke="#fff" stroke-miterlimit="10"/>
          <path d="M14.49,13.58c-2.24,2.23-3.86-3.86-3.86-3.86S16.73,11.34,14.49,13.58Z" fill="none" stroke="#fff" stroke-miterlimit="10"/>
          <path d="M6.77,13.58c-2.24-2.24,3.86-3.86,3.86-3.86S9,15.81,6.77,13.58Z" fill="none" stroke="#fff" stroke-miterlimit="10"/>
          <path d="M14.49,5.86c2.24,2.24-3.86,3.86-3.86,3.86S12.25,3.62,14.49,5.86Z" fill="none" stroke="#fff" stroke-miterlimit="10"/>
        </g>
        <g>
          <path d="M23.55,15.93v0a2.54,2.54,0,0,1,2.57-2.57A2.71,2.71,0,0,1,28,14l-.55.66a2,2,0,0,0-1.4-.53,1.69,1.69,0,0,0-1.62,1.76h0a1.67,1.67,0,0,0,1.7,1.79,2,2,0,0,0,1.2-.38v-.94H26.1v-.76h2.12v2.1a3.18,3.18,0,0,1-2.08.77A2.48,2.48,0,0,1,23.55,15.93Z" fill="#fff"/>
          <path d="M29.27,13.25h.93v.82h-.93Zm0,1.4h.87v3.76H29.3Z" fill="#fff"/>
          <path d="M31.48,15.39H31v-.72h.47V14.4a1.3,1.3,0,0,1,.31-.94,1.14,1.14,0,0,1,.85-.3,2.61,2.61,0,0,1,.7.1V14a1.52,1.52,0,0,0-.51-.09c-.33,0-.5.18-.5.57v.2h1v.72h-1v3h-.87Z" fill="#fff"/>
          <path d="M34.15,17.37v-2h-.48v-.74h.48v-1H35v1h1v.74H35v1.84c0,.34.17.47.46.47a1.09,1.09,0,0,0,.53-.13v.71a1.49,1.49,0,0,1-.77.19A1,1,0,0,1,34.15,17.37Z" fill="#fff"/>
          <path d="M23.55,22.1v0a2.53,2.53,0,0,1,2.57-2.58,2.65,2.65,0,0,1,2,.78l-.57.65a2,2,0,0,0-1.39-.62,1.67,1.67,0,0,0-1.65,1.76h0a1.69,1.69,0,0,0,1.65,1.78,2,2,0,0,0,1.43-.65l.56.57a2.57,2.57,0,0,1-2,.88A2.51,2.51,0,0,1,23.55,22.1Z" fill="#fff"/>
          <path d="M31.23,24.58v-.47a1.52,1.52,0,0,1-1.22.55,1.21,1.21,0,0,1-1.34-1.17h0c0-.83.65-1.23,1.53-1.23a3.32,3.32,0,0,1,1,.15v-.07c0-.52-.33-.8-.93-.8a2.71,2.71,0,0,0-1.08.23L29,21.07a3.29,3.29,0,0,1,1.43-.31,1.45,1.45,0,0,1,1.65,1.59v2.23Zm0-1.58a2.6,2.6,0,0,0-.86-.15c-.54,0-.86.22-.86.59h0c0,.36.32.56.72.56.57,0,1-.32,1-.79Z" fill="#fff"/>
          <path d="M33.11,20.82H34v.84a1.34,1.34,0,0,1,1.33-.92v.92h0c-.75,0-1.28.49-1.28,1.48v1.44h-.86Z" fill="#fff"/>
          <path d="M35.75,22.7h0a1.79,1.79,0,0,1,1.74-2,1.58,1.58,0,0,1,1.29.66v-2h.86v5.2h-.86V24a1.52,1.52,0,0,1-1.29.71A1.81,1.81,0,0,1,35.75,22.7Zm3,0h0a1.12,1.12,0,0,0-1.09-1.2,1.1,1.1,0,0,0-1.08,1.2h0a1.12,1.12,0,0,0,1.08,1.21A1.14,1.14,0,0,0,38.79,22.7Z" fill="#fff"/>
        </g>
      </g>
    </g>
  </g>
</svg>
