<svg xmlns="http://www.w3.org/2000/svg" width="10" height="15" viewBox="0 0 10 15">
  <title>icon-play</title>
  <g id="Layer_2" data-name="Layer 2">
    <g id="Guides">
      <path d="M1.5.2,9.7,6.8a1,1,0,0,1,0,1.4L1.5,14.8A.9.9,0,0,1,0,14.1V.9A.9.9,0,0,1,1.5.2Z" fill="#e50914"/>
    </g>
  </g>
</svg>
